index
…
Fetch national COVID-19 hospital admissions:

epidata <- pub_covidcast(
  source = "hhs",
  signals = "confirmed_admissions_covid_1d",
  geo_type = "nation",
  time_type = "day",
  geo_values = "*",
  time_values = "*"
  # (by default, fetches the current version)
)
# `epidata` looks like:

# A tibble: 1,411 × 15
  geo_value signal   source geo_type time_type time_value issue        lag value
  <chr>     <chr>    <chr>  <fct>    <fct>     <date>     <date>     <int> <dbl>
1 us        confirm… hhs    nation   day       2019-12-31 2023-04-13  1199     0
2 us        confirm… hhs    nation   day       2020-01-01 2023-04-13  1198   132
3 us        confirm… hhs    nation   day       2020-01-02 2023-04-13  1197   132
4 us        confirm… hhs    nation   day       2020-01-03 2023-04-13  1196   132
5 us        confirm… hhs    nation   day       2020-01-04 2023-04-13  1195   132
# ℹ 1,406 more rows
# ℹ 6 more variables: direction <dbl>, missing_value <int>,
#   missing_stderr <int>, missing_sample_size <int>, stderr <dbl>,
#   sample_size <dbl>
…
Fetch what the query should have looked like back in June (“as of” June 1st):

epidata <- pub_covidcast(
  source = "hhs",
  signals = "confirmed_admissions_covid_1d",
  geo_type = "nation",
  time_type = "day",
  geo_values = "*",
  time_values = "*",
  as_of = "2023-06-01"
)
# `epidata` looks like:

# A tibble: 1,247 × 15
  geo_value signal   source geo_type time_type time_value issue        lag value
  <chr>     <chr>    <chr>  <fct>    <fct>     <date>     <date>     <int> <dbl>
1 us        confirm… hhs    nation   day       2019-12-31 2023-04-13  1199     0
2 us        confirm… hhs    nation   day       2020-01-01 2023-04-13  1198   132
3 us        confirm… hhs    nation   day       2020-01-02 2023-04-13  1197   132
4 us        confirm… hhs    nation   day       2020-01-03 2023-04-13  1196   132
5 us        confirm… hhs    nation   day       2020-01-04 2023-04-13  1195   132
# ℹ 1,242 more rows
# ℹ 6 more variables: direction <dbl>, missing_value <int>,
#   missing_stderr <int>, missing_sample_size <int>, stderr <dbl>,
#   sample_size <dbl>
…
epi_df: a snapshot of epidata in time

epi_df

An `epi_df` object, 5,644 x 15 with metadata:
* geo_type  = state
* time_type = day
* as_of     = 2023-11-19

# A tibble: 5,644 × 15
   geo_value time_value signal source geo_type time_type direction issue 
 * <chr>     <date>     <chr>  <chr>  <fct>    <fct>         <dbl> <date>
 1 ca        2019-12-31 <NA>   <NA>   <NA>     <NA>             NA NA    
 2 ca        2020-01-01 <NA>   <NA>   <NA>     <NA>             NA NA    
 3 ca        2020-01-02 <NA>   <NA>   <NA>     <NA>             NA NA    
 4 ca        2020-01-03 <NA>   <NA>   <NA>     <NA>             NA NA    
 5 ca        2020-01-04 <NA>   <NA>   <NA>     <NA>             NA NA    
 6 ca        2020-01-05 <NA>   <NA>   <NA>     <NA>             NA NA    
 7 ca        2020-01-06 <NA>   <NA>   <NA>     <NA>             NA NA    
 8 ca        2020-01-07 <NA>   <NA>   <NA>     <NA>             NA NA    
 9 ca        2020-01-08 <NA>   <NA>   <NA>     <NA>             NA NA    
10 ca        2020-01-09 <NA>   <NA>   <NA>     <NA>             NA NA    
# ℹ 5,634 more rows
# ℹ 7 more variables: lag <int>, missing_value <int>, missing_stderr <int>,
#   missing_sample_size <int>, value <dbl>, stderr <dbl>, sample_size <dbl>
…
